<svg width="1920" height="960" viewBox="0 0 1920 960" fill="none" xmlns="http://www.w3.org/2000/svg">
<rect width="1920" height="960" fill="#6CC5AA"/>
<g clip-path="url(#clip0)">
<path d="M780.456 429.98C771.009 425.152 759.584 422.738 746.401 422.738H704.875V539.255H746.401C759.584 539.255 771.009 536.841 780.456 532.014C790.124 527.186 797.374 520.384 802.208 511.607C807.261 502.83 809.678 492.736 809.678 481.106C809.678 469.477 807.261 459.163 802.208 450.386C797.155 441.609 789.904 434.807 780.456 429.98ZM781.775 513.801C773.426 521.481 761.781 525.431 746.84 525.431H720.255V436.343H746.84C761.781 436.343 773.426 440.293 781.775 448.192C790.124 456.092 794.518 467.063 794.518 481.106C794.298 495.15 790.124 505.902 781.775 513.801Z" fill="white"/>
<path d="M849.666 436.124H912.944V422.519H843.075C835.824 422.519 829.892 428.444 829.892 435.685V459.164H845.272V440.293C845.272 438.099 847.249 436.124 849.666 436.124Z" fill="white"/>
<path d="M849.666 486.373H912.944V472.768H850.765H845.272H843.075C835.824 472.768 829.892 478.693 829.892 485.934V525.87C829.892 533.111 835.824 539.035 843.075 539.035H914.042V525.431H849.666C847.249 525.431 845.272 523.456 845.272 521.042V490.542C845.272 488.348 847.249 486.373 849.666 486.373Z" fill="white"/>
<path d="M1013.79 486.373C1007.42 480.887 997.314 476.498 983.032 473.426C974.244 471.671 967.433 469.696 962.379 467.721C957.326 465.746 953.591 463.552 951.174 460.919C948.757 458.286 947.439 454.994 947.439 451.045C947.439 445.778 950.075 441.39 955.129 438.098C960.182 434.807 967.213 433.052 976.221 433.052C985.01 433.052 992.26 435.026 997.753 439.196C1003.25 443.365 1006.32 448.412 1007.2 454.994H1023.02C1022.58 448.412 1020.16 442.268 1016.21 437.001C1012.03 431.735 1006.76 427.566 999.95 424.494C993.139 421.641 985.449 420.105 977.1 420.105C968.531 420.105 960.841 421.422 954.03 423.836C947.219 426.249 941.946 429.98 937.991 434.588C934.256 439.196 932.278 444.901 932.278 451.045C932.278 460.48 935.574 467.721 941.946 473.207C948.317 478.473 958.424 482.642 972.046 485.495C981.055 487.25 988.086 489.225 993.139 491.2C998.192 493.175 1001.93 495.589 1004.34 498.441C1006.76 501.294 1008.08 504.805 1008.08 508.974C1008.08 512.704 1006.76 516.215 1004.34 519.067C1001.93 522.139 998.192 524.334 993.798 526.089C989.184 527.844 984.131 528.503 978.418 528.503C968.751 528.503 961.061 526.308 954.909 521.92C948.757 517.531 945.461 511.607 944.582 504.366H928.763C929.202 511.826 931.619 518.409 935.794 524.114C939.968 529.819 945.681 534.208 952.931 537.28C959.962 540.352 968.092 541.888 977.1 541.888C985.669 541.888 993.578 540.571 1000.61 537.719C1007.64 534.866 1013.35 530.916 1017.31 525.87C1021.48 520.823 1023.46 514.898 1023.46 508.096C1023.24 499.319 1019.94 492.078 1013.79 486.373Z" fill="white"/>
<path d="M1088.71 476.279L1136.83 422.738H1117.72L1057.96 489.883V422.738H1042.58V539.255H1057.96V510.51L1078.83 487.25L1120.79 539.255H1140.13L1088.71 476.279Z" fill="white"/>
<path d="M1281.84 421.422V537.499H1266.68V485.056H1199.23V537.499H1184.07V421.422H1199.23V471.013H1266.68V421.422H1281.84Z" fill="white"/>
<path d="M1365.99 458.286C1372.36 462.016 1377.42 467.282 1381.15 473.865C1384.89 480.448 1386.65 487.909 1386.65 496.027C1386.65 504.146 1384.89 511.607 1381.15 518.19C1377.42 524.772 1372.58 530.039 1365.99 533.769C1359.4 537.499 1352.37 539.474 1344.24 539.474C1336.11 539.474 1328.86 537.499 1322.49 533.769C1316.12 530.039 1311.06 524.772 1307.33 518.19C1303.59 511.607 1301.84 504.146 1301.84 496.027C1301.84 487.909 1303.59 480.448 1307.33 473.865C1311.06 467.282 1316.12 462.016 1322.49 458.286C1328.86 454.556 1336.11 452.581 1344.24 452.581C1352.37 452.581 1359.4 454.336 1365.99 458.286ZM1329.74 469.696C1325.57 472.329 1322.27 476.06 1319.85 480.667C1317.44 485.275 1316.34 490.322 1316.34 496.027C1316.34 501.733 1317.44 506.779 1319.85 511.387C1322.27 515.995 1325.57 519.506 1329.74 522.359C1333.92 524.992 1338.75 526.308 1344.24 526.308C1349.51 526.308 1354.35 524.992 1358.52 522.359C1362.7 519.726 1365.99 515.995 1368.41 511.387C1370.83 506.779 1371.93 501.733 1371.93 496.027C1371.93 490.322 1370.83 485.275 1368.41 480.667C1365.99 476.06 1362.7 472.549 1358.52 469.696C1354.35 467.063 1349.51 465.746 1344.24 465.746C1338.75 465.746 1333.92 467.063 1329.74 469.696Z" fill="white"/>
<path d="M1405.76 537.499V417.911H1420.7V537.499H1405.76Z" fill="white"/>
<path d="M1458.71 419.228C1460.69 421.203 1461.57 423.397 1461.57 426.249C1461.57 429.102 1460.69 431.296 1458.71 433.271C1456.73 435.246 1454.54 436.124 1451.46 436.124C1448.6 436.124 1446.41 435.246 1444.43 433.271C1442.45 431.296 1441.57 429.102 1441.57 426.249C1441.57 423.397 1442.45 421.203 1444.43 419.228C1446.41 417.253 1448.6 416.375 1451.46 416.375C1454.54 416.375 1456.73 417.253 1458.71 419.228ZM1444.21 537.499V454.556H1459.15V537.499H1444.21Z" fill="white"/>
<path d="M1545.94 531.136C1538.91 536.622 1530.56 539.474 1520.89 539.474C1512.76 539.474 1505.51 537.499 1498.92 533.769C1492.55 530.039 1487.28 524.772 1483.76 518.19C1480.02 511.607 1478.27 504.146 1478.27 496.027C1478.27 487.909 1480.02 480.448 1483.76 473.865C1487.49 467.282 1492.33 462.016 1498.92 458.286C1505.29 454.556 1512.54 452.581 1520.67 452.581C1527.04 452.581 1532.98 453.897 1538.47 456.311C1543.96 458.944 1548.58 462.455 1552.09 467.063C1555.83 471.671 1558.24 476.718 1559.56 482.423H1544.4C1542.64 477.376 1539.79 473.426 1535.61 470.354C1531.44 467.282 1526.38 465.746 1520.67 465.746C1515.18 465.746 1510.34 467.063 1506.17 469.696C1502 472.329 1498.7 476.06 1496.28 480.667C1493.87 485.275 1492.77 490.322 1492.77 496.027C1492.77 501.733 1493.87 506.779 1496.28 511.387C1498.7 515.995 1501.78 519.506 1506.17 522.359C1510.34 524.992 1515.18 526.308 1520.67 526.308C1526.38 526.308 1531.44 524.772 1535.83 521.7C1540.01 518.628 1543.08 514.459 1544.84 509.412H1560C1557.58 518.409 1552.97 525.65 1545.94 531.136Z" fill="white"/>
<path fill-rule="evenodd" clip-rule="evenodd" d="M392.067 420.95C374.357 420.95 360 435.289 360 452.976V526.177H375.27V452.976C375.27 443.711 382.79 436.201 392.067 436.201H575.308C584.585 436.201 592.105 443.711 592.105 452.976V526.177H607.375V452.976C607.375 435.289 593.018 420.95 575.308 420.95H392.067ZM447.039 478.901H520.336V463.651H447.039V478.901Z" fill="white"/>
</g>
<defs>
<clipPath id="clip0">
<rect width="1200" height="496.395" fill="white" transform="translate(360 232)"/>
</clipPath>
</defs>
</svg>
