<svg width="24" height="24" viewBox="0 0 24 24" fill="none" xmlns="http://www.w3.org/2000/svg">
<path d="M18 6.70001L9.52003 15.18L5.98003 11.64C5.59003 11.25 4.96003 11.25 4.57003 11.64C4.18003 12.03 4.18003 12.66 4.57003 13.05L8.81003 17.29C9.20003 17.68 9.83003 17.68 10.22 17.29L19.4 8.11001C19.79 7.72001 19.79 7.08001 19.39 6.69001C19.02 6.31001 18.39 6.31001 18 6.70001Z" fill="#666666"/>
</svg>
