<svg width="20" height="19" viewBox="0 0 20 19" fill="none" xmlns="http://www.w3.org/2000/svg">
<path d="M8.66997 17.8C3.14997 12.85 -0.050033 10.16 -3.30045e-05 6.40998C0.039967 3.43998 2.29997 2.01998 2.34997 1.97998C5.95997 -0.480015 9.23997 2.19998 9.99997 3.08998C10.75 2.20998 13.99 -0.420015 17.56 1.92998C18.08 2.26998 19.79 3.57998 19.98 6.04998C20.3 10.33 15.84 13.81 11.33 17.81C10.95 18.15 10.47 18.31 9.98997 18.31C9.51997 18.31 9.04997 18.14 8.66997 17.8Z" fill="#6CC5AA"/>
</svg>
