<svg width="169" height="70" viewBox="0 0 169 70" fill="none" xmlns="http://www.w3.org/2000/svg">
<path d="M59.2142 27.9185C57.8837 27.2377 56.2746 26.8973 54.418 26.8973H48.5698V43.3281H54.418C56.2746 43.3281 57.8837 42.9877 59.2142 42.307C60.5757 41.6262 61.5968 40.667 62.2776 39.4292C62.9893 38.1915 63.3296 36.7682 63.3296 35.1282C63.3296 33.4882 62.9893 32.0339 62.2776 30.7962C61.5659 29.5584 60.5448 28.5992 59.2142 27.9185ZM59.3999 39.7387C58.224 40.8217 56.5841 41.3787 54.4799 41.3787H50.7358V28.8158H54.4799C56.5841 28.8158 58.224 29.3728 59.3999 30.4867C60.5757 31.6007 61.1946 33.1478 61.1946 35.1282C61.1636 37.1085 60.5757 38.6247 59.3999 39.7387Z" fill="#333333"/>
<path d="M68.9613 28.7849H77.8728V26.8664H68.033C67.0119 26.8664 66.1764 27.7019 66.1764 28.723V32.0339H68.3424V29.3728C68.3424 29.0634 68.6209 28.7849 68.9613 28.7849Z" fill="#333333"/>
<path d="M68.9613 35.8709H77.8728V33.9524H69.116H68.3424H68.033C67.0119 33.9524 66.1764 34.7879 66.1764 35.809V41.4406C66.1764 42.4617 67.0119 43.2972 68.033 43.2972H78.0276V41.3787H68.9613C68.6209 41.3787 68.3424 41.1002 68.3424 40.7599V36.4588C68.3424 36.1493 68.6209 35.8709 68.9613 35.8709Z" fill="#333333"/>
<path d="M92.0756 35.8708C91.1783 35.0972 89.7549 34.4784 87.7436 34.0452C86.5059 33.7976 85.5467 33.5191 84.835 33.2407C84.1233 32.9622 83.5973 32.6527 83.2569 32.2814C82.9165 31.9101 82.7309 31.446 82.7309 30.889C82.7309 30.1464 83.1022 29.5275 83.8139 29.0634C84.5256 28.5992 85.5157 28.3517 86.7844 28.3517C88.0221 28.3517 89.0432 28.6301 89.8168 29.2181C90.5904 29.806 91.0236 30.5177 91.1474 31.446H93.3752C93.3134 30.5177 92.973 29.6513 92.416 28.9086C91.8281 28.166 91.0855 27.5781 90.1262 27.1449C89.167 26.7426 88.084 26.526 86.9082 26.526C85.7014 26.526 84.6184 26.7117 83.6592 27.0521C82.6999 27.3924 81.9573 27.9185 81.4003 28.5683C80.8743 29.2181 80.5958 30.0226 80.5958 30.889C80.5958 32.2195 81.0599 33.2407 81.9573 34.0142C82.8546 34.7569 84.278 35.3448 86.1965 35.747C87.4651 35.9946 88.4553 36.2731 89.167 36.5516C89.8787 36.83 90.4047 37.1704 90.7451 37.5727C91.0855 37.9749 91.2711 38.47 91.2711 39.0579C91.2711 39.584 91.0855 40.0791 90.7451 40.4813C90.4047 40.9145 89.8787 41.2239 89.2598 41.4715C88.61 41.719 87.8983 41.8119 87.0938 41.8119C85.7323 41.8119 84.6493 41.5024 83.7829 40.8836C82.9165 40.2647 82.4524 39.4293 82.3286 38.4081H80.1007C80.1626 39.4602 80.503 40.3885 81.0909 41.193C81.6788 41.9975 82.4833 42.6164 83.5044 43.0496C84.4946 43.4828 85.6395 43.6994 86.9082 43.6994C88.1149 43.6994 89.2289 43.5137 90.2191 43.1115C91.2092 42.7092 92.0138 42.1522 92.5707 41.4405C93.1587 40.7289 93.4371 39.8934 93.4371 38.9342C93.4062 37.6965 92.942 36.6753 92.0756 35.8708Z" fill="#333333"/>
<path d="M102.627 34.4474L109.404 26.8973H106.712L98.2953 36.3659V26.8973H96.1293V43.3281H98.2953V39.2745L101.235 35.9946L107.145 43.3281H109.868L102.627 34.4474Z" fill="#333333"/>
<path d="M129.826 26.7117V43.0805H127.691V35.6851H118.192V43.0805H116.057V26.7117H118.192V33.7048H127.691V26.7117H129.826Z" fill="#333333"/>
<path d="M141.677 31.9101C142.575 32.4361 143.286 33.1788 143.812 34.1071C144.338 35.0354 144.586 36.0874 144.586 37.2323C144.586 38.3772 144.338 39.4293 143.812 40.3575C143.286 41.2858 142.606 42.0285 141.677 42.5545C140.749 43.0805 139.759 43.359 138.614 43.359C137.469 43.359 136.448 43.0805 135.551 42.5545C134.653 42.0285 133.942 41.2858 133.416 40.3575C132.89 39.4293 132.642 38.3772 132.642 37.2323C132.642 36.0874 132.89 35.0354 133.416 34.1071C133.942 33.1788 134.653 32.4361 135.551 31.9101C136.448 31.3841 137.469 31.1056 138.614 31.1056C139.759 31.1056 140.749 31.3531 141.677 31.9101ZM136.572 33.5191C135.984 33.8905 135.52 34.4165 135.179 35.0663C134.839 35.7161 134.684 36.4278 134.684 37.2323C134.684 38.0368 134.839 38.7485 135.179 39.3983C135.52 40.0481 135.984 40.5432 136.572 40.9455C137.16 41.3168 137.84 41.5024 138.614 41.5024C139.357 41.5024 140.037 41.3168 140.625 40.9455C141.213 40.5742 141.677 40.0481 142.018 39.3983C142.358 38.7485 142.513 38.0368 142.513 37.2323C142.513 36.4278 142.358 35.7161 142.018 35.0663C141.677 34.4165 141.213 33.9214 140.625 33.5191C140.037 33.1478 139.357 32.9622 138.614 32.9622C137.84 32.9622 137.16 33.1478 136.572 33.5191Z" fill="#333333"/>
<path d="M147.278 43.0805V26.2166H149.382V43.0805H147.278Z" fill="#333333"/>
<path d="M154.735 26.4023C155.014 26.6808 155.137 26.9902 155.137 27.3924C155.137 27.7947 155.014 28.1041 154.735 28.3826C154.457 28.6611 154.147 28.7849 153.714 28.7849C153.312 28.7849 153.002 28.6611 152.724 28.3826C152.445 28.1041 152.322 27.7947 152.322 27.3924C152.322 26.9902 152.445 26.6808 152.724 26.4023C153.002 26.1238 153.312 26 153.714 26C154.147 26 154.457 26.1238 154.735 26.4023ZM152.693 43.0805V31.3841H154.797V43.0805H152.693Z" fill="#333333"/>
<path d="M167.02 42.1832C166.03 42.9568 164.854 43.359 163.492 43.359C162.347 43.359 161.326 43.0805 160.398 42.5545C159.501 42.0285 158.758 41.2858 158.263 40.3575C157.737 39.4293 157.489 38.3772 157.489 37.2323C157.489 36.0874 157.737 35.0354 158.263 34.1071C158.789 33.1788 159.47 32.4361 160.398 31.9101C161.295 31.3841 162.316 31.1056 163.461 31.1056C164.359 31.1056 165.194 31.2913 165.968 31.6316C166.741 32.0029 167.391 32.498 167.886 33.1478C168.412 33.7976 168.753 34.5093 168.938 35.3138H166.803C166.556 34.6022 166.153 34.0452 165.565 33.612C164.977 33.1788 164.266 32.9622 163.461 32.9622C162.688 32.9622 162.007 33.1478 161.419 33.5191C160.831 33.8905 160.367 34.4165 160.027 35.0663C159.686 35.7161 159.531 36.4278 159.531 37.2323C159.531 38.0368 159.686 38.7485 160.027 39.3983C160.367 40.0481 160.8 40.5432 161.419 40.9455C162.007 41.3168 162.688 41.5024 163.461 41.5024C164.266 41.5024 164.977 41.2858 165.596 40.8526C166.184 40.4194 166.617 39.8315 166.865 39.1198H169C168.66 40.3885 168.01 41.4096 167.02 42.1832Z" fill="#333333"/>
<path fill-rule="evenodd" clip-rule="evenodd" d="M4.51613 26.6452C2.02194 26.6452 0 28.6671 0 31.1613V41.4839H2.15054V31.1613C2.15054 29.8548 3.20965 28.7957 4.51613 28.7957H30.3226C31.6291 28.7957 32.6882 29.8548 32.6882 31.1613V41.4839H34.8387V31.1613C34.8387 28.6671 32.8168 26.6452 30.3226 26.6452H4.51613ZM12.2581 34.8172H22.5806V32.6667H12.2581V34.8172Z" fill="#333333"/>
</svg>
